<?xml version="1.0" encoding="UTF-8"?>
<session version="1.0">
<refactoring comment="Copy 2 elements to &apos;spring&apos;&#x0D;&#x0A;- Original project: &apos;ore&apos;&#x0D;&#x0A;- Destination element: &apos;spring&apos;&#x0D;&#x0A;- Original elements:&#x0D;&#x0A;     applicationContext-security.xml&#x0D;&#x0A;     applicationContext-dao.xml" description="Copy files" element1="src/main/webapp/WEB-INF/spring/applicationContext-security.xml" element2="src/main/webapp/WEB-INF/spring/applicationContext-dao.xml" files="2" flags="589830" folders="0" id="org.eclipse.jdt.ui.copy" policy="org.eclipse.jdt.ui.copyResources" stamp="1459890150509" target="/FP/src/main/webapp/WEB-INF/spring" units="0" version="1.0"/>
</session>