<?xml version="1.0" encoding="UTF-8"?>
<session version="1.0">
<refactoring comment="Delete resource &apos;gs-rest-service-initial&apos;" deleteContents="true" description="Delete resource &apos;gs-rest-service-initial&apos;" element1="/gs-rest-service-initial" flags="7" id="org.eclipse.ltk.core.refactoring.delete.resources" resources="1" stamp="1478666931199"/>
</session>